<svg xmlns="http://www.w3.org/2000/svg" viewBox="0 0 16 16">
  <defs id="defs3051">
    <style type="text/css" id="current-color-scheme">
      .ColorScheme-Text {
      color:#ffffff;
      }
    </style>
  </defs>
  <path
          style="fill:currentColor;fill-opacity:1;stroke:none"
          d="M 5,1 V 3 H 1 V 4 H 2 V 15 H 3 14 V 14 4 h 1 V 3 H 11 V 1 Z m 1,1 h 4 V 3 H 6 Z M 3,4 h 2 1 4 1 2 V 14 H 3 Z m 2,2 v 6 H 6 V 6 Z m 5,0 v 6 h 1 V 6 Z"
          class="ColorScheme-Text" />
</svg>
